dataSci
…
rm(y)

rm(my_vector)

rm(add_one)

rm(my_vector2)

      Exercise: The pipe in action!

      Let's explore piping using the NOAA weather data from last week's problem set. The dataset contains weather records for the month of March (2010-2020) for several US climate monitoring stations. The format of the data breaks every one of the Tidy data rule:

messy_weather

## # A tibble: 165 x 40
##    station longitude latitude elevation state name   year month variable march_1
##    <chr>       <dbl>    <dbl>     <dbl> <chr> <chr> <dbl> <dbl> <chr>    <chr>  
##  1 USC000…    -122.      37.9      94.5 CA    BERK…  2010     3 precip   0      
##  2 USC000…    -122.      37.9      94.5 CA    BERK…  2010     3 snow     0      
##  3 USC000…    -122.      37.9      94.5 CA    BERK…  2010     3 tempera… 8.9:18…
##  4 USC003…     -76.4     42.4     293.  NY    ITHA…  2010     3 precip   1.3    
##  5 USC003…     -76.4     42.4     293.  NY    ITHA…  2010     3 snow     5      
##  6 USC003…     -76.4     42.4     293.  NY    ITHA…  2010     3 tempera… -0.6:0 
##  7 USC003…     -79.1     35.9     152.  NC    CHAP…  2010     3 precip   0      
##  8 USC003…     -79.1     35.9     152.  NC    CHAP…  2010     3 snow     0      
##  9 USC003…     -79.1     35.9     152.  NC    CHAP…  2010     3 tempera… -3.3:10
## 10 USC004…     -89.4     43.0     265.  WI    UW A…  2010     3 precip   0      
## # … with 155 more rows, and 30 more variables: march_2 <chr>, march_3 <chr>,
## #   march_4 <chr>, march_5 <chr>, march_6 <chr>, march_7 <chr>, march_8 <chr>,
## #   march_9 <chr>, march_10 <chr>, march_11 <chr>, march_12 <chr>,
## #   march_13 <chr>, march_14 <chr>, march_15 <chr>, march_16 <chr>,
## #   march_17 <chr>, march_18 <chr>, march_19 <chr>, march_20 <chr>,
## #   march_21 <chr>, march_22 <chr>, march_23 <chr>, march_24 <chr>,
## #   march_25 <chr>, march_26 <chr>, march_27 <chr>, march_28 <chr>,
## #   march_29 <chr>, march_30 <chr>, march_31 <chr>

      We were tasked with normalizing the data. Let's step through those steps using non-nested functions and assignment operators. We'll start with dealing with the day columns, which violates Codd's first normal and Hadley's "Each variable forms a column":

messy_weather_long_days <-
  pivot_longer(
    data = messy_weather,
    cols = march_1:march_31,
    names_to = 'day',
    values_to = 'value',
    names_prefix = 'march_')

messy_weather_long_days

## # A tibble: 5,115 x 11
##    station   longitude latitude elevation state name   year month variable day  
##    <chr>         <dbl>    <dbl>     <dbl> <chr> <chr> <dbl> <dbl> <chr>    <chr>
##  1 USC00040…     -122.     37.9      94.5 CA    BERK…  2010     3 precip   1    
##  2 USC00040…     -122.     37.9      94.5 CA    BERK…  2010     3 precip   2    
##  3 USC00040…     -122.     37.9      94.5 CA    BERK…  2010     3 precip   3    
##  4 USC00040…     -122.     37.9      94.5 CA    BERK…  2010     3 precip   4    
##  5 USC00040…     -122.     37.9      94.5 CA    BERK…  2010     3 precip   5    
##  6 USC00040…     -122.     37.9      94.5 CA    BERK…  2010     3 precip   6    
##  7 USC00040…     -122.     37.9      94.5 CA    BERK…  2010     3 precip   7    
##  8 USC00040…     -122.     37.9      94.5 CA    BERK…  2010     3 precip   8    
##  9 USC00040…     -122.     37.9      94.5 CA    BERK…  2010     3 precip   9    
## 10 USC00040…     -122.     37.9      94.5 CA    BERK…  2010     3 precip   10   
## # … with 5,105 more rows, and 1 more variable: value <chr>
…
      Next, we will deal with the year, month, and day columns, which also violate Codd's first normal and Hadley's "Each variable forms a column":

messy_weather_date_fix <-
  unite(
    messy_weather_long_days,
    c('year', 'month', 'day'),
    col = 'date',
    sep = '-',
    na.rm = TRUE)

messy_weather_date_fix

## # A tibble: 5,115 x 9
##    station    longitude latitude elevation state name     date    variable value
##    <chr>          <dbl>    <dbl>     <dbl> <chr> <chr>    <chr>   <chr>    <chr>
##  1 USC000406…     -122.     37.9      94.5 CA    BERKELEY 2010-3… precip   0    
##  2 USC000406…     -122.     37.9      94.5 CA    BERKELEY 2010-3… precip   10.2 
##  3 USC000406…     -122.     37.9      94.5 CA    BERKELEY 2010-3… precip   22.4 
##  4 USC000406…     -122.     37.9      94.5 CA    BERKELEY 2010-3… precip   0    
##  5 USC000406…     -122.     37.9      94.5 CA    BERKELEY 2010-3… precip   0    
##  6 USC000406…     -122.     37.9      94.5 CA    BERKELEY 2010-3… precip   0    
##  7 USC000406…     -122.     37.9      94.5 CA    BERKELEY 2010-3… precip   0    
##  8 USC000406…     -122.     37.9      94.5 CA    BERKELEY 2010-3… precip   0.5  
##  9 USC000406…     -122.     37.9      94.5 CA    BERKELEY 2010-3… precip   2.8  
## 10 USC000406…     -122.     37.9      94.5 CA    BERKELEY 2010-3… precip   0.8  
## # … with 5,105 more rows
…
      Now, we can see that observations are stored in more than one row. We can address this by:

messy_weather_wide_weather <-
  pivot_wider(
    messy_weather_date_fix,
    names_from = variable,
    values_from = value)

messy_weather_wide_weather

## # A tibble: 1,705 x 10
##    station     longitude latitude elevation state name     date     precip snow 
##    <chr>           <dbl>    <dbl>     <dbl> <chr> <chr>    <chr>    <chr>  <chr>
##  1 USC00040693     -122.     37.9      94.5 CA    BERKELEY 2010-3-1 0      0    
##  2 USC00040693     -122.     37.9      94.5 CA    BERKELEY 2010-3-2 10.2   0    
##  3 USC00040693     -122.     37.9      94.5 CA    BERKELEY 2010-3-3 22.4   0    
##  4 USC00040693     -122.     37.9      94.5 CA    BERKELEY 2010-3-4 0      0    
##  5 USC00040693     -122.     37.9      94.5 CA    BERKELEY 2010-3-5 0      0    
##  6 USC00040693     -122.     37.9      94.5 CA    BERKELEY 2010-3-6 0      0    
##  7 USC00040693     -122.     37.9      94.5 CA    BERKELEY 2010-3-7 0      0    
##  8 USC00040693     -122.     37.9      94.5 CA    BERKELEY 2010-3-8 0.5    0    
##  9 USC00040693     -122.     37.9      94.5 CA    BERKELEY 2010-3-9 2.8    0    
## 10 USC00040693     -122.     37.9      94.5 CA    BERKELEY 2010-3-… 0.8    0    
## # … with 1,695 more rows, and 1 more variable: temperature_min_max <chr>
…
      This shows that the temperature data is actually two variables smushed together into the same cell. We can address this by:

messy_weather_temperature_fix <-
  separate(
    messy_weather_wide_weather,
    col = temperature_min_max,
    into = c('temperature_min', 'temperature_max'),
    sep = ':')

messy_weather_temperature_fix

## # A tibble: 1,705 x 11
##    station     longitude latitude elevation state name     date     precip snow 
##    <chr>           <dbl>    <dbl>     <dbl> <chr> <chr>    <chr>    <chr>  <chr>
##  1 USC00040693     -122.     37.9      94.5 CA    BERKELEY 2010-3-1 0      0    
##  2 USC00040693     -122.     37.9      94.5 CA    BERKELEY 2010-3-2 10.2   0    
##  3 USC00040693     -122.     37.9      94.5 CA    BERKELEY 2010-3-3 22.4   0    
##  4 USC00040693     -122.     37.9      94.5 CA    BERKELEY 2010-3-4 0      0    
##  5 USC00040693     -122.     37.9      94.5 CA    BERKELEY 2010-3-5 0      0    
##  6 USC00040693     -122.     37.9      94.5 CA    BERKELEY 2010-3-6 0      0    
##  7 USC00040693     -122.     37.9      94.5 CA    BERKELEY 2010-3-7 0      0    
##  8 USC00040693     -122.     37.9      94.5 CA    BERKELEY 2010-3-8 0.5    0    
##  9 USC00040693     -122.     37.9      94.5 CA    BERKELEY 2010-3-9 2.8    0    
## 10 USC00040693     -122.     37.9      94.5 CA    BERKELEY 2010-3-… 0.8    0    
## # … with 1,695 more rows, and 2 more variables: temperature_min <chr>,
## #   temperature_max <chr>
…
weather_stations

## # A tibble: 5 x 6
##   station     longitude latitude elevation state name                  
##   <chr>           <dbl>    <dbl>     <dbl> <chr> <chr>                 
## 1 USC00040693    -122.      37.9      94.5 CA    BERKELEY              
## 2 USC00304174     -76.4     42.4     293.  NY    ITHACA CORNELL UNIV   
## 3 USC00311677     -79.1     35.9     152.  NC    CHAPEL HILL 2 W       
## 4 USC00470273     -89.4     43.0     265.  WI    UW ARBORETUM - MADISON
## 5 USW00094728     -74.0     40.8      39.6 NY    NEW YORK CNTRL PK TWR

observations

## # A tibble: 1,705 x 6
##    station     date      precip snow  temperature_min temperature_max
##    <chr>       <chr>     <chr>  <chr> <chr>           <chr>          
##  1 USC00040693 2010-3-1  0      0     8.9             18.3           
##  2 USC00040693 2010-3-2  10.2   0     9.4             15             
##  3 USC00040693 2010-3-3  22.4   0     7.2             15             
##  4 USC00040693 2010-3-4  0      0     3.3             13.9           
##  5 USC00040693 2010-3-5  0      0     4.4             15.6           
##  6 USC00040693 2010-3-6  0      0     10              14.4           
##  7 USC00040693 2010-3-7  0      0     8.3             18.3           
##  8 USC00040693 2010-3-8  0.5    0     8.3             18.9           
##  9 USC00040693 2010-3-9  2.8    0     2.8             13.9           
## 10 USC00040693 2010-3-10 0.8    0     2.8             15             
## # … with 1,695 more rows
…
## [1] "ITHACA CORNELL UNIV"

        We'll soon uncover a nicer way to do this, but sometimes I filter a table using a vector of data pulled from a different table. For example, if I wanted to filter observations to those that match my station query, I would do something like this (Note: The curly brackets allow us to evaluate only the output of multiple lines of code):

observations %>%
  filter(
    station %in% {
      weather_stations %>%
        filter(
          state == 'NY',
          elevation > 100) %>%
        pull(station)
    })

## # A tibble: 341 x 6
##    station     date       precip  snow temperature_min temperature_max
##    <chr>       <date>      <dbl> <dbl>           <dbl>           <dbl>
##  1 USC00304174 2010-03-01    1.3     5            -0.6             0  
##  2 USC00304174 2010-03-02    0.8     0            -1.1             1.7
##  3 USC00304174 2010-03-03    2      25            -1.7             2.2
##  4 USC00304174 2010-03-04    1.3     0            -5.6             1.1
##  5 USC00304174 2010-03-05    0       0           -10.6             1.7
##  6 USC00304174 2010-03-06    0       0           -14.4             2.2
##  7 USC00304174 2010-03-07    0       0           -10.6             4.4
##  8 USC00304174 2010-03-08    0       0            -6.1             9.4
##  9 USC00304174 2010-03-09    0       0            -5.6             9.4
## 10 USC00304174 2010-03-10    0       0            -5              11.1
## # … with 331 more rows

        We can also use functions within our query argument. For example, lubridate has a function year that extracts years from date objects. We can use this to filter the observations to the year 2015:

observations %>%
  filter(lubridate::year(date) == 2015)

## # A tibble: 155 x 6
##    station     date       precip  snow temperature_min temperature_max
##    <chr>       <date>      <dbl> <dbl>           <dbl>           <dbl>
##  1 USC00040693 2015-03-01      0    NA             7.2            15.6
##  2 USC00040693 2015-03-02      0    NA             7.8            20.6
##  3 USC00040693 2015-03-03      0    NA             6.1            17.2
##  4 USC00040693 2015-03-04      0    NA             6.7            20  
##  5 USC00040693 2015-03-05      0    NA             7.2            20.6
##  6 USC00040693 2015-03-06      0    NA             7.8            22.8
##  7 USC00040693 2015-03-07      0    NA             8.3            23.9
##  8 USC00040693 2015-03-08      0    NA             7.2            25  
##  9 USC00040693 2015-03-09      0    NA             8.9            21.1
## 10 USC00040693 2015-03-10      0    NA             8.9            19.4
## # … with 145 more rows
…
      For our last section today, we'll look at how to join data. Once our data are formatted in a tidy way (i.e., normalized), this is where we can start to make them act like a database. The most fundamental of joins is a left_join between tables that contain primary and foreign keys.

      Primary key: Column that identifies the table row. Primary keys must be unique to the row!

      Foreign key: Column with values that correspond to a primary key in a different table.

      Let's use a left_join to bring our station information back into our observation frame. The tibble weather_stations contains the primary key station and the the tibble observations contains a foreign key with the same name. We specify the join using the byargument.

observations %>%
  left_join(
    weather_stations,
    by = 'station')

## # A tibble: 1,705 x 11
##    station     date       precip  snow temperature_min temperature_max longitude
##    <chr>       <date>      <dbl> <dbl>           <dbl>           <dbl>     <dbl>
##  1 USC00040693 2010-03-01    0       0             8.9            18.3     -122.
##  2 USC00040693 2010-03-02   10.2     0             9.4            15       -122.
##  3 USC00040693 2010-03-03   22.4     0             7.2            15       -122.
##  4 USC00040693 2010-03-04    0       0             3.3            13.9     -122.
##  5 USC00040693 2010-03-05    0       0             4.4            15.6     -122.
##  6 USC00040693 2010-03-06    0       0            10              14.4     -122.
##  7 USC00040693 2010-03-07    0       0             8.3            18.3     -122.
##  8 USC00040693 2010-03-08    0.5     0             8.3            18.9     -122.
##  9 USC00040693 2010-03-09    2.8     0             2.8            13.9     -122.
## 10 USC00040693 2010-03-10    0.8     0             2.8            15       -122.
## # … with 1,695 more rows, and 4 more variables: latitude <dbl>,
## #   elevation <dbl>, state <chr>, name <chr>

      Your normally interested in a column or two of the joined dataset. For example, maybe you just wanted to know the state of the station that an observation was associated with. You would use select to subset the columns of the table you are joining to your table of interest:

observations %>%
  left_join(
    weather_stations %>%
      select(station, state),
    by = 'station')

## # A tibble: 1,705 x 7
##    station     date       precip  snow temperature_min temperature_max state
##    <chr>       <date>      <dbl> <dbl>           <dbl>           <dbl> <chr>
##  1 USC00040693 2010-03-01    0       0             8.9            18.3 CA   
##  2 USC00040693 2010-03-02   10.2     0             9.4            15   CA   
##  3 USC00040693 2010-03-03   22.4     0             7.2            15   CA   
##  4 USC00040693 2010-03-04    0       0             3.3            13.9 CA   
##  5 USC00040693 2010-03-05    0       0             4.4            15.6 CA   
##  6 USC00040693 2010-03-06    0       0            10              14.4 CA   
##  7 USC00040693 2010-03-07    0       0             8.3            18.3 CA   
##  8 USC00040693 2010-03-08    0.5     0             8.3            18.9 CA   
##  9 USC00040693 2010-03-09    2.8     0             2.8            13.9 CA   
## 10 USC00040693 2010-03-10    0.8     0             2.8            15   CA   
## # … with 1,695 more rows

      Joins become very powerful in combination with filtering. For example, you may want to pull only records associated with New York. You can use an inner_join to join matching records across tables:

observations %>%
  inner_join(
    weather_stations %>%
      filter(state == 'NY') %>%
      select(station),
    by = 'station')

## # A tibble: 682 x 6
##    station     date       precip  snow temperature_min temperature_max
##    <chr>       <date>      <dbl> <dbl>           <dbl>           <dbl>
##  1 USC00304174 2010-03-01    1.3     5            -0.6             0  
##  2 USC00304174 2010-03-02    0.8     0            -1.1             1.7
##  3 USC00304174 2010-03-03    2      25            -1.7             2.2
##  4 USC00304174 2010-03-04    1.3     0            -5.6             1.1
##  5 USC00304174 2010-03-05    0       0           -10.6             1.7
##  6 USC00304174 2010-03-06    0       0           -14.4             2.2
##  7 USC00304174 2010-03-07    0       0           -10.6             4.4
##  8 USC00304174 2010-03-08    0       0            -6.1             9.4
##  9 USC00304174 2010-03-09    0       0            -5.6             9.4
## 10 USC00304174 2010-03-10    0       0            -5              11.1
## # … with 672 more rows
…
